[gd_scene load_steps=7 format=2]

[ext_resource path="res://Sprites/Flap_256x256/player_fall.png" type="Texture" id=1]
[ext_resource path="res://Scenes/Player.gd" type="Script" id=2]
[ext_resource path="res://Sprites/Flap_256x256/player_run.png" type="Texture" id=3]
[ext_resource path="res://Sprites/Flap_256x256/player_jump.png" type="Texture" id=4]

[sub_resource type="CapsuleShape2D" id=1]
radius = 46.6486
height = 33.4841

[sub_resource type="SpriteFrames" id=2]
animations = [ {
"frames": [ ExtResource( 4 ) ],
"loop": true,
"name": "JUMP",
"speed": 5.0
}, {
"frames": [ ExtResource( 3 ) ],
"loop": true,
"name": "IDLE",
"speed": 5.0
}, {
"frames": [ ExtResource( 3 ) ],
"loop": true,
"name": "WALK",
"speed": 5.0
}, {
"frames": [ ExtResource( 1 ) ],
"loop": true,
"name": "FALL",
"speed": 5.0
} ]

[node name="KinematicBody2D" type="KinematicBody2D"]
script = ExtResource( 2 )
MOVE_SPEED = 290
PLAYER_GRAVITY = 30
MAX_JUMP_FORCE = 900
MIN_JUMP_FORCE = 400
PLAYER_GRAVITY_BOX = Vector2( -120, 200 )

[node name="CollisionShape2D" type="CollisionShape2D" parent="."]
rotation = 1.5708
shape = SubResource( 1 )

[node name="AnimatedSprite" type="AnimatedSprite" parent="."]
frames = SubResource( 2 )
animation = "WALK"

[node name="Label" type="Label" parent="."]
margin_left = 100.0
margin_top = -100.0
margin_right = 140.0
margin_bottom = -86.0
rect_scale = Vector2( 5, 5 )
__meta__ = {
"_edit_use_anchors_": false
}

[node name="Label2" type="Label" parent="."]
margin_left = -6.0
margin_top = -200.0
margin_right = 40.0
margin_bottom = -186.0
rect_scale = Vector2( 5.191, 4.008 )
__meta__ = {
"_edit_use_anchors_": false
}
